;  LST file generated by mikroListExporter - v.2.0 
; Date/Time: 16-Jul-22 02:18:28 PM
;----------------------------------------------

;Address Opcode 	ASM
0x0000	0x02041C  	LJMP 1052
0x0003	0x020000  	LJMP 0
0x0006	0x00      	NOP
0x0007	0x00      	NOP
0x0008	0x00      	NOP
0x0009	0x00      	NOP
0x000A	0x00      	NOP
0x000B	0x020000  	LJMP 0
0x000E	0x00      	NOP
0x000F	0x00      	NOP
0x0010	0x00      	NOP
0x0011	0x00      	NOP
0x0012	0x00      	NOP
0x0013	0x020000  	LJMP 0
0x0016	0x00      	NOP
0x0017	0x00      	NOP
0x0018	0x00      	NOP
0x0019	0x00      	NOP
0x001A	0x00      	NOP
0x001B	0x020000  	LJMP 0
0x001E	0x00      	NOP
0x001F	0x00      	NOP
0x0020	0x00      	NOP
0x0021	0x00      	NOP
0x0022	0x00      	NOP
0x0023	0x020441  	LJMP 1089
0x0026	0x00      	NOP
0x0027	0x00      	NOP
0x0028	0x00      	NOP
0x0029	0x00      	NOP
0x002A	0x00      	NOP
0x002B	0x020000  	LJMP 0
0x002E	0x00      	NOP
0x002F	0x00      	NOP
0x0030	0x00      	NOP
0x0031	0x00      	NOP
0x0032	0x00      	NOP
0x0033	0x020000  	LJMP 0
0x0036	0x00      	NOP
0x0037	0x00      	NOP
0x0038	0x00      	NOP
0x0039	0x00      	NOP
0x003A	0x00      	NOP
0x003B	0x020000  	LJMP 0
0x003E	0x00      	NOP
0x003F	0x00      	NOP
0x0040	0x00      	NOP
0x0041	0x00      	NOP
0x0042	0x00      	NOP
0x0043	0x020000  	LJMP 0
0x0046	0x00      	NOP
0x0047	0x00      	NOP
0x0048	0x00      	NOP
0x0049	0x00      	NOP
0x004A	0x00      	NOP
0x004B	0x020000  	LJMP 0
0x004E	0x00      	NOP
0x004F	0x00      	NOP
0x0050	0x00      	NOP
0x0051	0x00      	NOP
0x0052	0x00      	NOP
0x0053	0x020000  	LJMP 0
0x0056	0x00      	NOP
0x0057	0x00      	NOP
0x0058	0x00      	NOP
0x0059	0x00      	NOP
0x005A	0x00      	NOP
0x005B	0x020000  	LJMP 0
0x005E	0x00      	NOP
0x005F	0x00      	NOP
0x0060	0x00      	NOP
0x0061	0x00      	NOP
0x0062	0x00      	NOP
0x0063	0x020000  	LJMP 0
0x0066	0x00      	NOP
0x0067	0x00      	NOP
0x0068	0x00      	NOP
0x0069	0x00      	NOP
0x006A	0x00      	NOP
0x006B	0x020000  	LJMP 0
0x006E	0x00      	NOP
0x006F	0x00      	NOP
0x0070	0x00      	NOP
0x0071	0x00      	NOP
0x0072	0x00      	NOP
0x0073	0x02046F  	LJMP 1135
_UART1_Write:
;__Lib_UART_Timer1_XBR_Shift.c,30 :: 		
;__Lib_UART_Timer1_XBR_Shift.c,31 :: 		
0x0076	0xC299    	CLR SCON0.B1
;__Lib_UART_Timer1_XBR_Shift.c,32 :: 		
0x0078	0x852F99  	MOV SBUF0, FARG_UART1_Write_data_+0
;__Lib_UART_Timer1_XBR_Shift.c,33 :: 		
L_UART1_Write0:
0x007B	0x209902  	JB SCON0.B1, L_UART1_Write1
;__Lib_UART_Timer1_XBR_Shift.c,34 :: 		
0x007E	0x80FB    	SJMP L_UART1_Write0
L_UART1_Write1:
;__Lib_UART_Timer1_XBR_Shift.c,35 :: 		
0x0080	0xC299    	CLR SCON0.B1
;__Lib_UART_Timer1_XBR_Shift.c,36 :: 		
0x0082	0x22      	RET
; end of _UART1_Write
_MODBUS_RTU_CRC16:
;tof200.c,23 :: 		unsigned int MODBUS_RTU_CRC16(unsigned char *data_input, unsigned char data_length)
;tof200.c,25 :: 		unsigned char n = 8;
0x0083	0x753C08  	MOV MODBUS_RTU_CRC16_n_L0, #8
0x0086	0x753D00  	MOV MODBUS_RTU_CRC16_s_L0, #0
0x0089	0x753EFF  	MOV MODBUS_RTU_CRC16_CRC_word_L0, #255
0x008C	0x753FFF  	MOV MODBUS_RTU_CRC16_CRC_word_L0+1, #255
;tof200.c,26 :: 		unsigned char s = 0;
;tof200.c,27 :: 		unsigned int CRC_word = 0xFFFF;
;tof200.c,29 :: 		for(s = 0; s < data_length; s++)
0x008F	0x753D00  	MOV MODBUS_RTU_CRC16_s_L0, #0
L_MODBUS_RTU_CRC160:
0x0092	0xC3      	CLR C
0x0093	0xE53D    	MOV A, MODBUS_RTU_CRC16_s_L0
0x0095	0x952E    	SUBB A, FARG_MODBUS_RTU_CRC16_data_length
0x0097	0x505B    	JNC L_MODBUS_RTU_CRC161
;tof200.c,31 :: 		CRC_word ^= ((unsigned int)data_input[s]);
0x0099	0xE52D    	MOV A, FARG_MODBUS_RTU_CRC16_data_input
0x009B	0x253D    	ADD A, MODBUS_RTU_CRC16_s_L0
0x009D	0xF8      	MOV R0, A
0x009E	0x8600    	MOV R0, @R0
0x00A0	0xE4      	CLR A
0x00A1	0xF9      	MOV R1, A
0x00A2	0xE8      	MOV A, R0
0x00A3	0x623E    	XRL MODBUS_RTU_CRC16_CRC_word_L0, A
0x00A5	0xE9      	MOV A, R1
0x00A6	0x623F    	XRL MODBUS_RTU_CRC16_CRC_word_L0+1, A
;tof200.c,33 :: 		n = 8;
0x00A8	0x753C08  	MOV MODBUS_RTU_CRC16_n_L0, #8
;tof200.c,34 :: 		while(n > 0)
L_MODBUS_RTU_CRC163:
0x00AB	0xD3      	SETB C
0x00AC	0xE53C    	MOV A, MODBUS_RTU_CRC16_n_L0
0x00AE	0x9400    	SUBB A, #0
0x00B0	0x403E    	JC L_MODBUS_RTU_CRC164
;tof200.c,36 :: 		if((CRC_word & 0x0001) == 0)
0x00B2	0x7401    	MOV A, #1
0x00B4	0x553E    	ANL A, MODBUS_RTU_CRC16_CRC_word_L0
0x00B6	0xF9      	MOV R1, A
0x00B7	0x7400    	MOV A, #0
0x00B9	0x553F    	ANL A, MODBUS_RTU_CRC16_CRC_word_L0+1
0x00BB	0xFA      	MOV R2, A
0x00BC	0xE9      	MOV A, R1
0x00BD	0x4A      	ORL A, R2
0x00BE	0x7014    	JNZ L_MODBUS_RTU_CRC165
;tof200.c,38 :: 		CRC_word >>= 1;
0x00C0	0x7801    	MOV R0, #1
0x00C2	0xE53F    	MOV A, MODBUS_RTU_CRC16_CRC_word_L0+1
0x00C4	0x08      	INC R0
0x00C5	0x8007    	SJMP L__MODBUS_RTU_CRC1633
L__MODBUS_RTU_CRC1634:
0x00C7	0xC3      	CLR C
0x00C8	0x13      	RRC A
0x00C9	0xC53E    	XCH A, MODBUS_RTU_CRC16_CRC_word_L0
0x00CB	0x13      	RRC A
0x00CC	0xC53E    	XCH A, MODBUS_RTU_CRC16_CRC_word_L0
L__MODBUS_RTU_CRC1633:
0x00CE	0xD8F7    	DJNZ R0, L__MODBUS_RTU_CRC1634
0x00D0	0xF53F    	MOV MODBUS_RTU_CRC16_CRC_word_L0+1, A
;tof200.c,39 :: 		}
0x00D2	0x8018    	SJMP L_MODBUS_RTU_CRC166
L_MODBUS_RTU_CRC165:
;tof200.c,43 :: 		CRC_word >>= 1;
0x00D4	0x7801    	MOV R0, #1
0x00D6	0xE53F    	MOV A, MODBUS_RTU_CRC16_CRC_word_L0+1
0x00D8	0x08      	INC R0
0x00D9	0x8007    	SJMP L__MODBUS_RTU_CRC1635
L__MODBUS_RTU_CRC1636:
0x00DB	0xC3      	CLR C
0x00DC	0x13      	RRC A
0x00DD	0xC53E    	XCH A, MODBUS_RTU_CRC16_CRC_word_L0
0x00DF	0x13      	RRC A
0x00E0	0xC53E    	XCH A, MODBUS_RTU_CRC16_CRC_word_L0
L__MODBUS_RTU_CRC1635:
0x00E2	0xD8F7    	DJNZ R0, L__MODBUS_RTU_CRC1636
0x00E4	0xF53F    	MOV MODBUS_RTU_CRC16_CRC_word_L0+1, A
;tof200.c,44 :: 		CRC_word ^= 0xA001;
0x00E6	0x633E01  	XRL MODBUS_RTU_CRC16_CRC_word_L0, #1
0x00E9	0x633FA0  	XRL MODBUS_RTU_CRC16_CRC_word_L0+1, #160
;tof200.c,45 :: 		}
L_MODBUS_RTU_CRC166:
;tof200.c,47 :: 		n--;
0x00EC	0x153C    	DEC MODBUS_RTU_CRC16_n_L0
;tof200.c,48 :: 		}
0x00EE	0x80BB    	SJMP L_MODBUS_RTU_CRC163
L_MODBUS_RTU_CRC164:
;tof200.c,29 :: 		for(s = 0; s < data_length; s++)
0x00F0	0x053D    	INC MODBUS_RTU_CRC16_s_L0
;tof200.c,49 :: 		}
0x00F2	0x0192    	AJMP L_MODBUS_RTU_CRC160
L_MODBUS_RTU_CRC161:
;tof200.c,51 :: 		return CRC_word;
0x00F4	0xA83E    	MOV R0, MODBUS_RTU_CRC16_CRC_word_L0
0x00F6	0xA93F    	MOV R1, MODBUS_RTU_CRC16_CRC_word_L0+1
;tof200.c,52 :: 		}
0x00F8	0x22      	RET
; end of _MODBUS_RTU_CRC16
_UART_Write:
;__Lib_UART_Timer1_XBR_Shift.c,102 :: 		
;__Lib_UART_Timer1_XBR_Shift.c,103 :: 		
0x00F9	0xA821    	MOV R0, _UART_Wr_Ptr+2
0x00FB	0xA62D    	MOV @R0, FARG_UART_Write__data
0x00FD	0x08      	INC R0
0x00FE	0xA81F    	MOV R0, _UART_Wr_Ptr
0x0100	0xA920    	MOV R1, _UART_Wr_Ptr+1
0x0102	0x5191    	ACALL ___DoIFC
;__Lib_UART_Timer1_XBR_Shift.c,104 :: 		
0x0104	0x22      	RET
; end of _UART_Write
_flush_RX_buffer:
;tof200.c,55 :: 		void flush_RX_buffer(void)
;tof200.c,57 :: 		signed char s = (ToF200_TX_data_packet_size - 1);
0x0105	0x752D07  	MOV flush_RX_buffer_s_L0, #7
;tof200.c,59 :: 		while(s > -1)
L_flush_RX_buffer7:
0x0108	0xD3      	SETB C
0x0109	0x74FF    	MOV A, #255
0x010B	0x6480    	XRL A, #128
0x010D	0xF8      	MOV R0, A
0x010E	0xE52D    	MOV A, flush_RX_buffer_s_L0
0x0110	0x6480    	XRL A, #128
0x0112	0x98      	SUBB A, R0
0x0113	0x400B    	JC L_flush_RX_buffer8
;tof200.c,61 :: 		rx_buffer[s] = 0x00;
0x0115	0x7408    	MOV A, lo_addr(_rx_buffer)
0x0117	0x252D    	ADD A, flush_RX_buffer_s_L0
0x0119	0xF8      	MOV R0, A
0x011A	0x7600    	MOV @R0, #0
;tof200.c,62 :: 		s--;
0x011C	0x152D    	DEC flush_RX_buffer_s_L0
;tof200.c,63 :: 		};
0x011E	0x80E8    	SJMP L_flush_RX_buffer7
L_flush_RX_buffer8:
;tof200.c,64 :: 		}
0x0120	0x22      	RET
; end of _flush_RX_buffer
_get_HB_LB:
;tof200.c,16 :: 		void get_HB_LB(unsigned int value, unsigned char *HB, unsigned char *LB)
;tof200.c,18 :: 		*LB = (unsigned char)(value & 0x00FF);
0x0121	0x74FF    	MOV A, #255
0x0123	0x553C    	ANL A, FARG_get_HB_LB_value
0x0125	0xF9      	MOV R1, A
0x0126	0xA83F    	MOV R0, FARG_get_HB_LB_LB
0x0128	0xA601    	MOV @R0, R1
;tof200.c,19 :: 		*HB = (unsigned char)((value & 0xFF00) >> 8);
0x012A	0xE53C    	MOV A, FARG_get_HB_LB_value
0x012C	0x5400    	ANL A, #0
0x012E	0xF8      	MOV R0, A
0x012F	0xE53D    	MOV A, FARG_get_HB_LB_value+1
0x0131	0x54FF    	ANL A, #255
0x0133	0xF9      	MOV R1, A
0x0134	0xAA01    	MOV R2, R1
0x0136	0x7B00    	MOV R3, #0
0x0138	0xA83E    	MOV R0, FARG_get_HB_LB_HB
0x013A	0xA602    	MOV @R0, R2
;tof200.c,20 :: 		}
0x013C	0x22      	RET
; end of _get_HB_LB
_Oscillator_Init:
;serial_comm.c,164 :: 		void Oscillator_Init(void)
;serial_comm.c,166 :: 		OSCICN = 0x82;
0x013D	0x75B282  	MOV OSCICN, #130
;serial_comm.c,167 :: 		}
0x0140	0x22      	RET
; end of _Oscillator_Init
_level2Double:
;__Lib_MathDouble.c,978 :: 		
;__Lib_MathDouble.c,981 :: 		
0x0141	0x33      	RLC A
;__Lib_MathDouble.c,982 :: 		
0x0142	0x92D5    	MOV F0_bit, C
;__Lib_MathDouble.c,983 :: 		
0x0144	0x30D503  	JNB F0_bit, __Byte2Double_l1
;__Lib_MathDouble.c,984 :: 		
0x0147	0x12016C  	LCALL __Byte2Double_l2
;__Lib_MathDouble.c,986 :: 		
__Byte2Double_l1:
;__Lib_MathDouble.c,987 :: 		
0x014A	0xEB      	MOV A, R3
;__Lib_MathDouble.c,988 :: 		
0x014B	0x33      	RLC A
;__Lib_MathDouble.c,989 :: 		
0x014C	0x4010    	JC __Byte2Double_l3
;__Lib_MathDouble.c,990 :: 		
0x014E	0xE8      	MOV A, R0
;__Lib_MathDouble.c,991 :: 		
0x014F	0x33      	RLC A
;__Lib_MathDouble.c,992 :: 		
0x0150	0xF8      	MOV R0, A
;__Lib_MathDouble.c,993 :: 		
0x0151	0xE9      	MOV A, R1
;__Lib_MathDouble.c,994 :: 		
0x0152	0x33      	RLC A
;__Lib_MathDouble.c,995 :: 		
0x0153	0xF9      	MOV R1, A
;__Lib_MathDouble.c,996 :: 		
0x0154	0xEA      	MOV A, R2
;__Lib_MathDouble.c,997 :: 		
0x0155	0x33      	RLC A
;__Lib_MathDouble.c,998 :: 		
0x0156	0xFA      	MOV R2, A
;__Lib_MathDouble.c,999 :: 		
0x0157	0xEB      	MOV A, R3
;__Lib_MathDouble.c,1000 :: 		
0x0158	0x33      	RLC A
;__Lib_MathDouble.c,1001 :: 		
0x0159	0xFB      	MOV R3, A
;__Lib_MathDouble.c,1002 :: 		
0x015A	0xD5F0ED  	DJNZ B, __Byte2Double_l1
;__Lib_MathDouble.c,1003 :: 		
0x015D	0x22      	RET
;__Lib_MathDouble.c,1005 :: 		
__Byte2Double_l3:
;__Lib_MathDouble.c,1006 :: 		
0x015E	0xE5F0    	MOV A, B
;__Lib_MathDouble.c,1007 :: 		
0x0160	0x247E    	ADD A, 126
;__Lib_MathDouble.c,1008 :: 		
0x0162	0xA2D5    	MOV C, F0_bit
;__Lib_MathDouble.c,1009 :: 		
0x0164	0x13      	RRC A
;__Lib_MathDouble.c,1010 :: 		
0x0165	0xCB      	XCH A, R3
;__Lib_MathDouble.c,1011 :: 		
0x0166	0x92E7    	MOV 231.B0, C
;__Lib_MathDouble.c,1012 :: 		
0x0168	0xCA      	XCH A, R2
;__Lib_MathDouble.c,1013 :: 		
0x0169	0xC9      	XCH A, R1
;__Lib_MathDouble.c,1014 :: 		
0x016A	0xF8      	MOV R0, A
;__Lib_MathDouble.c,1015 :: 		
0x016B	0x22      	RET
;__Lib_MathDouble.c,1017 :: 		
__Byte2Double_l2:
;__Lib_MathDouble.c,1018 :: 		
0x016C	0xC3      	CLR C
;__Lib_MathDouble.c,1019 :: 		
0x016D	0xE4      	CLR A
;__Lib_MathDouble.c,1020 :: 		
0x016E	0x98      	SUBB A, R0
;__Lib_MathDouble.c,1021 :: 		
0x016F	0xF8      	MOV R0, A
;__Lib_MathDouble.c,1022 :: 		
0x0170	0xE4      	CLR A
;__Lib_MathDouble.c,1023 :: 		
0x0171	0x99      	SUBB A, R1
;__Lib_MathDouble.c,1024 :: 		
0x0172	0xF9      	MOV R1, A
;__Lib_MathDouble.c,1025 :: 		
0x0173	0xE4      	CLR A
;__Lib_MathDouble.c,1026 :: 		
0x0174	0x9A      	SUBB A, R2
;__Lib_MathDouble.c,1027 :: 		
0x0175	0xFA      	MOV R2, A
;__Lib_MathDouble.c,1028 :: 		
0x0176	0xE4      	CLR A
;__Lib_MathDouble.c,1029 :: 		
0x0177	0x9B      	SUBB A, R3
;__Lib_MathDouble.c,1030 :: 		
0x0178	0xFB      	MOV R3, A
;__Lib_MathDouble.c,1032 :: 		
0x0179	0x22      	RET
; end of _level2Double
_MODBUS_TX:
;tof200.c,67 :: 		void MODBUS_TX(unsigned char slave_ID, unsigned char function_code, unsigned char reg, unsigned char value)
;tof200.c,69 :: 		unsigned char i  = 0x00;
0x017A	0x752A00  	MOV MODBUS_TX_i_L0, #0
0x017D	0x752B00  	MOV MODBUS_TX_lb_L0, #0
0x0180	0x752C00  	MOV MODBUS_TX_hb_L0, #0
;tof200.c,70 :: 		unsigned char lb = 0x00;
;tof200.c,71 :: 		unsigned char hb = 0x00;
;tof200.c,72 :: 		unsigned int temp = 0x0000;
;tof200.c,76 :: 		tx_buffer[0x00] = slave_ID;
0x0183	0x852634  	MOV MODBUS_TX_tx_buffer_L0, FARG_MODBUS_TX_slave_ID+0
;tof200.c,77 :: 		tx_buffer[0x01] = function_code;
0x0186	0x852735  	MOV MODBUS_TX_tx_buffer_L0+1, FARG_MODBUS_TX_function_code+0
;tof200.c,79 :: 		get_HB_LB(reg, &hb, &lb);
0x0189	0x85283C  	MOV FARG_get_HB_LB_value, FARG_MODBUS_TX_reg+0
0x018C	0xE4      	CLR A
0x018D	0xF53D    	MOV FARG_get_HB_LB_value+1, A
0x018F	0x753E2C  	MOV FARG_get_HB_LB_HB, lo_addr(MODBUS_TX_hb_L0)
0x0192	0x753F2B  	MOV FARG_get_HB_LB_LB, lo_addr(MODBUS_TX_lb_L0)
0x0195	0x3121    	ACALL _get_HB_LB
;tof200.c,81 :: 		tx_buffer[0x02] = hb;
0x0197	0x852C36  	MOV MODBUS_TX_tx_buffer_L0+2, MODBUS_TX_hb_L0+0
;tof200.c,82 :: 		tx_buffer[0x03] = lb;
0x019A	0x852B37  	MOV MODBUS_TX_tx_buffer_L0+3, MODBUS_TX_lb_L0+0
;tof200.c,84 :: 		get_HB_LB(value, &hb, &lb);
0x019D	0x85293C  	MOV FARG_get_HB_LB_value, FARG_MODBUS_TX_value+0
0x01A0	0xE4      	CLR A
0x01A1	0xF53D    	MOV FARG_get_HB_LB_value+1, A
0x01A3	0x753E2C  	MOV FARG_get_HB_LB_HB, lo_addr(MODBUS_TX_hb_L0)
0x01A6	0x753F2B  	MOV FARG_get_HB_LB_LB, lo_addr(MODBUS_TX_lb_L0)
0x01A9	0x3121    	ACALL _get_HB_LB
;tof200.c,86 :: 		tx_buffer[0x04] = hb;
0x01AB	0x852C38  	MOV MODBUS_TX_tx_buffer_L0+4, MODBUS_TX_hb_L0+0
;tof200.c,87 :: 		tx_buffer[0x05] = lb;
0x01AE	0x852B39  	MOV MODBUS_TX_tx_buffer_L0+5, MODBUS_TX_lb_L0+0
;tof200.c,89 :: 		temp = MODBUS_RTU_CRC16(tx_buffer, 6);
0x01B1	0x752D34  	MOV FARG_MODBUS_RTU_CRC16_data_input, lo_addr(MODBUS_TX_tx_buffer_L0)
0x01B4	0x752E06  	MOV FARG_MODBUS_RTU_CRC16_data_length, #6
0x01B7	0x1183    	ACALL _MODBUS_RTU_CRC16
;tof200.c,90 :: 		get_HB_LB(temp, &hb, &lb);
0x01B9	0x85003C  	MOV FARG_get_HB_LB_value, 0
0x01BC	0x85013D  	MOV FARG_get_HB_LB_value+1, 1
0x01BF	0x753E2C  	MOV FARG_get_HB_LB_HB, lo_addr(MODBUS_TX_hb_L0)
0x01C2	0x753F2B  	MOV FARG_get_HB_LB_LB, lo_addr(MODBUS_TX_lb_L0)
0x01C5	0x3121    	ACALL _get_HB_LB
;tof200.c,92 :: 		tx_buffer[0x06] = lb;
0x01C7	0x852B3A  	MOV MODBUS_TX_tx_buffer_L0+6, MODBUS_TX_lb_L0+0
;tof200.c,93 :: 		tx_buffer[0x07] = hb;
0x01CA	0x852C3B  	MOV MODBUS_TX_tx_buffer_L0+7, MODBUS_TX_hb_L0+0
;tof200.c,95 :: 		flush_RX_buffer();
0x01CD	0x3105    	ACALL _flush_RX_buffer
;tof200.c,97 :: 		for(i = 0; i < ToF200_TX_data_packet_size; i++)
0x01CF	0x752A00  	MOV MODBUS_TX_i_L0, #0
L_MODBUS_TX9:
0x01D2	0xC3      	CLR C
0x01D3	0xE52A    	MOV A, MODBUS_TX_i_L0
0x01D5	0x9408    	SUBB A, #8
0x01D7	0x500D    	JNC L_MODBUS_TX10
;tof200.c,99 :: 		UART_Write(tx_buffer[i]);
0x01D9	0x7434    	MOV A, lo_addr(MODBUS_TX_tx_buffer_L0)
0x01DB	0x252A    	ADD A, MODBUS_TX_i_L0
0x01DD	0xF8      	MOV R0, A
0x01DE	0x862D    	MOV FARG_UART_Write__data, @R0
0x01E0	0x11F9    	ACALL _UART_Write
;tof200.c,97 :: 		for(i = 0; i < ToF200_TX_data_packet_size; i++)
0x01E2	0x052A    	INC MODBUS_TX_i_L0
;tof200.c,100 :: 		}
0x01E4	0x80EC    	SJMP L_MODBUS_TX9
L_MODBUS_TX10:
;tof200.c,102 :: 		cnt = 0x00;
0x01E6	0x751800  	MOV _cnt, #0
;tof200.c,103 :: 		delay_ms(40);
0x01E9	0x7D03    	MOV R5, 3
0x01EB	0x7E7D    	MOV R6, 125
0x01ED	0x7F59    	MOV R7, 89
0x01EF	0xDFFE    	DJNZ R7, PC-2
0x01F1	0xDEFC    	DJNZ R6, PC-4
0x01F3	0xDDFA    	DJNZ R5, PC-6
;tof200.c,104 :: 		}
0x01F5	0x22      	RET
; end of _MODBUS_TX
_make_word:
;tof200.c,4 :: 		unsigned int make_word(unsigned char HB, unsigned char LB)
;tof200.c,6 :: 		unsigned int tmp = 0;
0x01F6	0x752800  	MOV make_word_tmp_L0, #0
0x01F9	0x752900  	MOV make_word_tmp_L0+1, #0
;tof200.c,8 :: 		tmp = HB;
0x01FC	0x852628  	MOV make_word_tmp_L0, FARG_make_word_HB+0
0x01FF	0xE4      	CLR A
0x0200	0xF529    	MOV make_word_tmp_L0+1, A
;tof200.c,9 :: 		tmp <<= 8;
0x0202	0xA928    	MOV R1, make_word_tmp_L0
0x0204	0x7800    	MOV R0, #0
0x0206	0x850028  	MOV make_word_tmp_L0, 0
0x0209	0x850129  	MOV make_word_tmp_L0+1, 1
;tof200.c,10 :: 		tmp |= LB;
0x020C	0xE527    	MOV A, FARG_make_word_LB
0x020E	0x4200    	ORL R0, A
0x0210	0xE4      	CLR A
0x0211	0x4201    	ORL R1, A
0x0213	0x850028  	MOV make_word_tmp_L0, 0
0x0216	0x850129  	MOV make_word_tmp_L0+1, 1
;tof200.c,12 :: 		return tmp;
;tof200.c,13 :: 		}
0x0219	0x22      	RET
; end of _make_word
_UART1_Read:
;__Lib_UART_Timer1_XBR_Shift.c,42 :: 		
;__Lib_UART_Timer1_XBR_Shift.c,43 :: 		
0x021A	0xC298    	CLR SCON0.B0
;__Lib_UART_Timer1_XBR_Shift.c,44 :: 		
0x021C	0xA899    	MOV R0, SBUF0
;__Lib_UART_Timer1_XBR_Shift.c,45 :: 		
0x021E	0x22      	RET
; end of _UART1_Read
_UART1_Data_Ready:
;__Lib_UART_Timer1_XBR_Shift.c,38 :: 		
;__Lib_UART_Timer1_XBR_Shift.c,39 :: 		
0x021F	0xA298    	MOV C, SCON0.B0
0x0221	0xE4      	CLR A
0x0222	0x33      	RLC A
0x0223	0xF8      	MOV R0, A
;__Lib_UART_Timer1_XBR_Shift.c,40 :: 		
0x0224	0x22      	RET
; end of _UART1_Data_Ready
_write_74HC595:
;serial_comm.c,188 :: 		void write_74HC595(unsigned char send_data)
;serial_comm.c,190 :: 		signed char clks = 0x08;
0x0225	0x754508  	MOV write_74HC595_clks_L0, #8
;serial_comm.c,192 :: 		while(clks > 0)
L_write_74HC59529:
0x0228	0xD3      	SETB C
0x0229	0x7400    	MOV A, #0
0x022B	0x6480    	XRL A, #128
0x022D	0xF8      	MOV R0, A
0x022E	0xE545    	MOV A, write_74HC595_clks_L0
0x0230	0x6480    	XRL A, #128
0x0232	0x98      	SUBB A, R0
0x0233	0x4022    	JC L_write_74HC59530
;serial_comm.c,194 :: 		if((send_data & 0x80) == 0x00)
0x0235	0xE544    	MOV A, FARG_write_74HC595_send_data
0x0237	0x5480    	ANL A, #128
0x0239	0xF9      	MOV R1, A
0x023A	0x7004    	JNZ L_write_74HC59531
;serial_comm.c,196 :: 		LED_DOUT = 0;
0x023C	0xC296    	CLR P1_6_bit
;serial_comm.c,197 :: 		}
0x023E	0x8002    	SJMP L_write_74HC59532
L_write_74HC59531:
;serial_comm.c,200 :: 		LED_DOUT = 1;
0x0240	0xD296    	SETB P1_6_bit
;serial_comm.c,201 :: 		}
L_write_74HC59532:
;serial_comm.c,203 :: 		LED_CLK = 0;
0x0242	0xC295    	CLR P1_5_bit
;serial_comm.c,204 :: 		send_data <<= 1;
0x0244	0x7801    	MOV R0, #1
0x0246	0xE544    	MOV A, FARG_write_74HC595_send_data
0x0248	0x08      	INC R0
0x0249	0x8002    	SJMP L__write_74HC59538
L__write_74HC59539:
0x024B	0xC3      	CLR C
0x024C	0x33      	RLC A
L__write_74HC59538:
0x024D	0xD8FC    	DJNZ R0, L__write_74HC59539
0x024F	0xF544    	MOV FARG_write_74HC595_send_data, A
;serial_comm.c,205 :: 		clks--;
0x0251	0x1545    	DEC write_74HC595_clks_L0
;serial_comm.c,206 :: 		LED_CLK = 1;
0x0253	0xD295    	SETB P1_5_bit
;serial_comm.c,207 :: 		}
0x0255	0x80D1    	SJMP L_write_74HC59529
L_write_74HC59530:
;serial_comm.c,208 :: 		}
0x0257	0x22      	RET
; end of _write_74HC595
_UART1_Init:
;__Lib_UART_Timer1_XBR_Shift.c,15 :: 		
;__Lib_UART_Timer1_XBR_Shift.c,16 :: 		
0x0258	0x751F76  	MOV _UART_Wr_Ptr, lo_addr(_UART1_Write)
0x025B	0x752000  	MOV _UART_Wr_Ptr+1, hi_addr(_UART1_Write)
0x025E	0x75212F  	MOV _UART_Wr_Ptr+2, lo_addr(FARG_UART1_Write_data_)
;__Lib_UART_Timer1_XBR_Shift.c,17 :: 		
0x0261	0x75191A  	MOV _UART_Rd_Ptr, lo_addr(_UART1_Read)
0x0264	0x751A02  	MOV _UART_Rd_Ptr+1, hi_addr(_UART1_Read)
0x0267	0x751B00  	MOV _UART_Rd_Ptr+2, 0
;__Lib_UART_Timer1_XBR_Shift.c,18 :: 		
0x026A	0x751C1F  	MOV _UART_Rdy_Ptr, lo_addr(_UART1_Data_Ready)
0x026D	0x751D02  	MOV _UART_Rdy_Ptr+1, hi_addr(_UART1_Data_Ready)
0x0270	0x751E00  	MOV _UART_Rdy_Ptr+2, 0
;__Lib_UART_Timer1_XBR_Shift.c,21 :: 		
0x0273	0x43E101  	ORL XBR0, #1
;__Lib_UART_Timer1_XBR_Shift.c,22 :: 		
0x0276	0x43E240  	ORL XBR1, #64
;__Lib_UART_Timer1_XBR_Shift.c,23 :: 		
0x0279	0x758840  	MOV TCON, #64
;__Lib_UART_Timer1_XBR_Shift.c,24 :: 		
0x027C	0x758920  	MOV TMOD, #32
;__Lib_UART_Timer1_XBR_Shift.c,25 :: 		
0x027F	0x759810  	MOV SCON0, #16
;__Lib_UART_Timer1_XBR_Shift.c,28 :: 		
0x0282	0x22      	RET
; end of _UART1_Init
_Interrupts_Init:
;serial_comm.c,170 :: 		void Interrupts_Init(void)
;serial_comm.c,172 :: 		IE = 0x90;
0x0283	0x75A890  	MOV IE, #144
;serial_comm.c,173 :: 		EIE1 = 0x80;
0x0286	0x75E680  	MOV EIE1, #128
;serial_comm.c,174 :: 		}
0x0289	0x22      	RET
; end of _Interrupts_Init
_PCA_Init:
;serial_comm.c,121 :: 		void PCA_Init(void)
;serial_comm.c,123 :: 		PCA0MD &= ~0x40;
0x028A	0x53D9BF  	ANL PCA0MD, #191
;serial_comm.c,124 :: 		PCA0MD = 0x00;
0x028D	0x75D900  	MOV PCA0MD, #0
;serial_comm.c,125 :: 		}
0x0290	0x22      	RET
; end of _PCA_Init
___DoIFC:
;__Lib_System.c,3 :: 		
;__Lib_System.c,4 :: 		
0x0291	0xC000    	PUSH R0
;__Lib_System.c,5 :: 		
0x0293	0xC001    	PUSH R1
;__Lib_System.c,6 :: 		
0x0295	0x22      	RET
; end of ___DoIFC
_Timer_Init:
;serial_comm.c,128 :: 		void Timer_Init(void)
;serial_comm.c,130 :: 		TMR3CN = 0x04;
0x0296	0x759104  	MOV TMR3CN, #4
;serial_comm.c,131 :: 		TMR3RLL = 0x02;
0x0299	0x759202  	MOV TMR3RLL, #2
;serial_comm.c,132 :: 		TMR3RLH = 0xFC;
0x029C	0x7593FC  	MOV TMR3RLH, #252
;serial_comm.c,133 :: 		}
0x029F	0x22      	RET
; end of _Timer_Init
_Port_IO_Init:
;serial_comm.c,136 :: 		void Port_IO_Init(void)
;serial_comm.c,156 :: 		P0MDOUT = 0x30;
0x02A0	0x75A430  	MOV P0MDOUT, #48
;serial_comm.c,157 :: 		P1MDOUT = 0xE0;
0x02A3	0x75A5E0  	MOV P1MDOUT, #224
;serial_comm.c,158 :: 		P1SKIP = 0xE0;
0x02A6	0x75D5E0  	MOV P1SKIP, #224
;serial_comm.c,159 :: 		XBR0 = 0x01;
0x02A9	0x75E101  	MOV XBR0, #1
;serial_comm.c,160 :: 		XBR1 = 0x40;
0x02AC	0x75E240  	MOV XBR1, #64
;serial_comm.c,161 :: 		}
0x02AF	0x22      	RET
; end of _Port_IO_Init
___CC2D:
;__Lib_System.c,13 :: 		
;__Lib_System.c,15 :: 		
_CC2D_Loop1:
;__Lib_System.c,16 :: 		
0x02B0	0xE4      	CLR A
;__Lib_System.c,17 :: 		
0x02B1	0x93      	MOVC A, @A+DPTR
;__Lib_System.c,18 :: 		
0x02B2	0xF6      	MOV @R0, A
;__Lib_System.c,19 :: 		
0x02B3	0x08      	INC R0
;__Lib_System.c,20 :: 		
0x02B4	0xA3      	INC DPTR
;__Lib_System.c,21 :: 		
0x02B5	0xD9F9    	DJNZ R1, _CC2D_Loop1
;__Lib_System.c,23 :: 		
0x02B7	0x22      	RET
; end of ___CC2D
_Init_Device:
;serial_comm.c,177 :: 		void Init_Device(void)
;serial_comm.c,179 :: 		PCA_Init();
0x02B8	0x518A    	ACALL _PCA_Init
;serial_comm.c,180 :: 		Timer_Init();
0x02BA	0x5196    	ACALL _Timer_Init
;serial_comm.c,181 :: 		Port_IO_Init();
0x02BC	0x51A0    	ACALL _Port_IO_Init
;serial_comm.c,182 :: 		Oscillator_Init();
0x02BE	0x313D    	ACALL _Oscillator_Init
;serial_comm.c,183 :: 		Interrupts_Init();
0x02C0	0x5183    	ACALL _Interrupts_Init
;serial_comm.c,184 :: 		UART1_Init(115200);
0x02C2	0x538EFC  	ANL CKCON, #252
0x02C5	0x438E08  	ORL CKCON, #8
0x02C8	0x758DCB  	MOV TH1, #203
0x02CB	0x5158    	ACALL _UART1_Init
;serial_comm.c,185 :: 		}
0x02CD	0x22      	RET
; end of _Init_Device
_segment_write:
;serial_comm.c,211 :: 		void segment_write(unsigned char disp, unsigned char pos)
;serial_comm.c,213 :: 		LED_LATCH = 0;
0x02CE	0xC297    	CLR P1_7_bit
;serial_comm.c,214 :: 		write_74HC595(segment_code[disp]);
0x02D0	0xE542    	MOV A, FARG_segment_write_disp
0x02D2	0x2430    	ADD A, lo_addr(_segment_code)
0x02D4	0xF9      	MOV R1, A
0x02D5	0xE4      	CLR A
0x02D6	0x3405    	ADDC A, hi_addr(_segment_code)
0x02D8	0xFA      	MOV R2, A
0x02D9	0x850182  	MOV DPL, 1
0x02DC	0x850283  	MOV DPH, 2
0x02DF	0xE4      	CLR A
0x02E0	0x93      	MOVC A, @A+DPTR
0x02E1	0xF8      	MOV R0, A
0x02E2	0x850044  	MOV FARG_write_74HC595_send_data, 0
0x02E5	0x5125    	ACALL _write_74HC595
;serial_comm.c,215 :: 		write_74HC595(display_pos[pos]);
0x02E7	0xE543    	MOV A, FARG_segment_write_pos
0x02E9	0x2440    	ADD A, lo_addr(_display_pos)
0x02EB	0xF9      	MOV R1, A
0x02EC	0xE4      	CLR A
0x02ED	0x3405    	ADDC A, hi_addr(_display_pos)
0x02EF	0xFA      	MOV R2, A
0x02F0	0x850182  	MOV DPL, 1
0x02F3	0x850283  	MOV DPH, 2
0x02F6	0xE4      	CLR A
0x02F7	0x93      	MOVC A, @A+DPTR
0x02F8	0xF8      	MOV R0, A
0x02F9	0x850044  	MOV FARG_write_74HC595_send_data, 0
0x02FC	0x5125    	ACALL _write_74HC595
;serial_comm.c,216 :: 		LED_LATCH = 1;
0x02FE	0xD297    	SETB P1_7_bit
;serial_comm.c,218 :: 		}
0x0300	0x22      	RET
; end of _segment_write
_Div_16x16_U:
;__Lib_Math.c,273 :: 		
;__Lib_Math.c,275 :: 		
0x0301	0xBD000B  	CJNE R5, 0, __op2hi_not_zero
;__Lib_Math.c,276 :: 		
0x0304	0xB90029  	CJNE R1, 0, __op1hi_not_zero
;__Lib_Math.c,277 :: 		
0x0307	0xE8      	MOV A, R0
;__Lib_Math.c,278 :: 		
0x0308	0x8CF0    	MOV B, R4
;__Lib_Math.c,279 :: 		
0x030A	0x84      	DIV AB
;__Lib_Math.c,280 :: 		
0x030B	0xF8      	MOV R0, A
;__Lib_Math.c,281 :: 		
0x030C	0xACF0    	MOV R4, B
;__Lib_Math.c,282 :: 		
0x030E	0x22      	RET
;__Lib_Math.c,284 :: 		
__op2hi_not_zero:
;__Lib_Math.c,285 :: 		
0x030F	0xE4      	CLR A
;__Lib_Math.c,286 :: 		
0x0310	0xCD      	XCH A, R5
;__Lib_Math.c,287 :: 		
0x0311	0xFF      	MOV R7, A
;__Lib_Math.c,288 :: 		
0x0312	0x75F008  	MOV B, 8
;__Lib_Math.c,290 :: 		
__Div_16x16_U_Loop1:
;__Lib_Math.c,291 :: 		
0x0315	0xE8      	MOV A, R0
;__Lib_Math.c,292 :: 		
0x0316	0x28      	ADD A, R0
;__Lib_Math.c,293 :: 		
0x0317	0xF8      	MOV R0, A
;__Lib_Math.c,294 :: 		
0x0318	0xE9      	MOV A, R1
;__Lib_Math.c,295 :: 		
0x0319	0x33      	RLC A
;__Lib_Math.c,296 :: 		
0x031A	0xF9      	MOV R1, A
;__Lib_Math.c,297 :: 		
0x031B	0xED      	MOV A, R5
;__Lib_Math.c,298 :: 		
0x031C	0x33      	RLC A
;__Lib_Math.c,299 :: 		
0x031D	0xFD      	MOV R5, A
;__Lib_Math.c,300 :: 		
0x031E	0xE9      	MOV A, R1
;__Lib_Math.c,301 :: 		
0x031F	0x9C      	SUBB A, R4
;__Lib_Math.c,302 :: 		
0x0320	0xED      	MOV A, R5
;__Lib_Math.c,303 :: 		
0x0321	0x9F      	SUBB A, R7
;__Lib_Math.c,304 :: 		
0x0322	0x4005    	JC __Div_16x16_U_Lab1
;__Lib_Math.c,305 :: 		
0x0324	0xFD      	MOV R5, A
;__Lib_Math.c,306 :: 		
0x0325	0xE9      	MOV A, R1
;__Lib_Math.c,307 :: 		
0x0326	0x9C      	SUBB A, R4
;__Lib_Math.c,308 :: 		
0x0327	0xF9      	MOV R1, A
;__Lib_Math.c,309 :: 		
0x0328	0x08      	INC R0
;__Lib_Math.c,311 :: 		
__Div_16x16_U_Lab1:
;__Lib_Math.c,312 :: 		
0x0329	0xD5F0E9  	DJNZ B, __Div_16x16_U_Loop1
;__Lib_Math.c,313 :: 		
0x032C	0xE4      	CLR A
;__Lib_Math.c,314 :: 		
0x032D	0xC9      	XCH A, R1
;__Lib_Math.c,315 :: 		
0x032E	0xFC      	MOV R4, A
;__Lib_Math.c,316 :: 		
0x032F	0x22      	RET
;__Lib_Math.c,318 :: 		
__op1hi_not_zero:
;__Lib_Math.c,319 :: 		
0x0330	0xEC      	MOV A, R4
;__Lib_Math.c,320 :: 		
0x0331	0xFF      	MOV R7, A
;__Lib_Math.c,321 :: 		
0x0332	0xF5F0    	MOV B, A
;__Lib_Math.c,322 :: 		
0x0334	0xE9      	MOV A, R1
;__Lib_Math.c,323 :: 		
0x0335	0x84      	DIV AB
;__Lib_Math.c,324 :: 		
0x0336	0x20D21C  	JB OV_bit, __Div_16x16_U_div_ret
;__Lib_Math.c,325 :: 		
0x0339	0xF9      	MOV R1, A
;__Lib_Math.c,326 :: 		
0x033A	0xACF0    	MOV R4, B
;__Lib_Math.c,327 :: 		
0x033C	0x75F008  	MOV B, 8
;__Lib_Math.c,329 :: 		
__Div_16x16_U_Loop2:
;__Lib_Math.c,330 :: 		
0x033F	0xE8      	MOV A, R0
;__Lib_Math.c,331 :: 		
0x0340	0x28      	ADD A, R0
;__Lib_Math.c,332 :: 		
0x0341	0xF8      	MOV R0, A
;__Lib_Math.c,333 :: 		
0x0342	0xEC      	MOV A, R4
;__Lib_Math.c,334 :: 		
0x0343	0x33      	RLC A
;__Lib_Math.c,335 :: 		
0x0344	0xFC      	MOV R4, A
;__Lib_Math.c,336 :: 		
0x0345	0x4007    	JC __Div_16x16_U_Lab2
;__Lib_Math.c,337 :: 		
0x0347	0x9F      	SUBB A, R7
;__Lib_Math.c,338 :: 		
0x0348	0x5006    	JNC __Div_16x16_U_Lab3
;__Lib_Math.c,339 :: 		
0x034A	0xD5F0F2  	DJNZ B, __Div_16x16_U_Loop2
;__Lib_Math.c,340 :: 		
0x034D	0x22      	RET
;__Lib_Math.c,342 :: 		
__Div_16x16_U_Lab2:
;__Lib_Math.c,343 :: 		
0x034E	0xC3      	CLR C
;__Lib_Math.c,344 :: 		
0x034F	0x9F      	SUBB A, R7
;__Lib_Math.c,345 :: 		
__Div_16x16_U_Lab3:
;__Lib_Math.c,346 :: 		
0x0350	0xFC      	MOV R4, A
;__Lib_Math.c,347 :: 		
0x0351	0x08      	INC R0
;__Lib_Math.c,348 :: 		
0x0352	0xD5F0EA  	DJNZ B, __Div_16x16_U_Loop2
;__Lib_Math.c,350 :: 		
__Div_16x16_U_div_ret:
;__Lib_Math.c,352 :: 		
0x0355	0x22      	RET
; end of _Div_16x16_U
_UART_Read:
;__Lib_UART_Timer1_XBR_Shift.c,117 :: 		
;__Lib_UART_Timer1_XBR_Shift.c,118 :: 		
0x0356	0xA819    	MOV R0, _UART_Rd_Ptr
0x0358	0xA91A    	MOV R1, _UART_Rd_Ptr+1
0x035A	0x5191    	ACALL ___DoIFC
;__Lib_UART_Timer1_XBR_Shift.c,119 :: 		
0x035C	0x22      	RET
; end of _UART_Read
_Word2Double:
;__Lib_MathDouble.c,1077 :: 		
;__Lib_MathDouble.c,1079 :: 		
0x035D	0x75F020  	MOV B, 32
;__Lib_MathDouble.c,1080 :: 		
0x0360	0xE4      	CLR A
;__Lib_MathDouble.c,1082 :: 		
0x0361	0x3141    	ACALL _level2Double
;__Lib_MathDouble.c,1083 :: 		
0x0363	0x22      	RET
; end of _Word2Double
_ToF_get_range:
;tof200.c,107 :: 		unsigned int ToF_get_range(void)
;tof200.c,109 :: 		unsigned int CRC_1 = 0x0000;
0x0364	0x752200  	MOV ToF_get_range_CRC_1_L0, #0
0x0367	0x752300  	MOV ToF_get_range_CRC_1_L0+1, #0
0x036A	0x752488  	MOV ToF_get_range_distance_L0, #136
0x036D	0x752513  	MOV ToF_get_range_distance_L0+1, #19
;tof200.c,110 :: 		unsigned int CRC_2 = 0x0000;
;tof200.c,112 :: 		unsigned int distance = 5000;
;tof200.c,114 :: 		MODBUS_TX(ToF200_slave_default_ID,
0x0370	0x752601  	MOV FARG_MODBUS_TX_slave_ID, #1
;tof200.c,115 :: 		MODBUS_read_holding_registers_function_code,
0x0373	0x752703  	MOV FARG_MODBUS_TX_function_code, #3
;tof200.c,116 :: 		ToF200_measurement_register,
0x0376	0x752810  	MOV FARG_MODBUS_TX_reg, #16
;tof200.c,117 :: 		0x0001);
0x0379	0x752901  	MOV FARG_MODBUS_TX_value, #1
0x037C	0x317A    	ACALL _MODBUS_TX
;tof200.c,119 :: 		if(rx_buffer[0x00] == ToF200_slave_default_ID)
0x037E	0xE508    	MOV A, _rx_buffer
0x0380	0x6401    	XRL A, #1
0x0382	0x7051    	JNZ L_ToF_get_range12
;tof200.c,121 :: 		if(rx_buffer[0x01] == MODBUS_read_holding_registers_function_code)
0x0384	0xE509    	MOV A, _rx_buffer+1
0x0386	0x6403    	XRL A, #3
0x0388	0x704B    	JNZ L_ToF_get_range13
;tof200.c,123 :: 		if(rx_buffer[0x02] == 0x02)
0x038A	0xE50A    	MOV A, _rx_buffer+2
0x038C	0x6402    	XRL A, #2
0x038E	0x7045    	JNZ L_ToF_get_range14
;tof200.c,125 :: 		CRC_1 = MODBUS_RTU_CRC16(rx_buffer, 5);
0x0390	0x752D08  	MOV FARG_MODBUS_RTU_CRC16_data_input, lo_addr(_rx_buffer)
0x0393	0x752E05  	MOV FARG_MODBUS_RTU_CRC16_data_length, #5
0x0396	0x1183    	ACALL _MODBUS_RTU_CRC16
0x0398	0x850022  	MOV ToF_get_range_CRC_1_L0, 0
0x039B	0x850123  	MOV ToF_get_range_CRC_1_L0+1, 1
;tof200.c,126 :: 		CRC_2 = make_word(rx_buffer[0x06], rx_buffer[0x05]);
0x039E	0x850E26  	MOV FARG_make_word_HB, _rx_buffer+6
0x03A1	0x850D27  	MOV FARG_make_word_LB, _rx_buffer+5
0x03A4	0x31F6    	ACALL _make_word
;tof200.c,128 :: 		if(CRC_1 == CRC_2)
0x03A6	0xE522    	MOV A, ToF_get_range_CRC_1_L0
0x03A8	0x68      	XRL A, R0
0x03A9	0x7003    	JNZ L__ToF_get_range37
0x03AB	0xE523    	MOV A, ToF_get_range_CRC_1_L0+1
0x03AD	0x69      	XRL A, R1
L__ToF_get_range37:
0x03AE	0x701F    	JNZ L_ToF_get_range15
;tof200.c,130 :: 		distance = make_word(rx_buffer[0x03], rx_buffer[0x04]);
0x03B0	0x850B26  	MOV FARG_make_word_HB, _rx_buffer+3
0x03B3	0x850C27  	MOV FARG_make_word_LB, _rx_buffer+4
0x03B6	0x31F6    	ACALL _make_word
0x03B8	0x850024  	MOV ToF_get_range_distance_L0, 0
0x03BB	0x850125  	MOV ToF_get_range_distance_L0+1, 1
;tof200.c,131 :: 		if(distance > ToF200_default_max_distance)
0x03BE	0xD3      	SETB C
0x03BF	0xE8      	MOV A, R0
0x03C0	0x94D0    	SUBB A, #208
0x03C2	0xE9      	MOV A, R1
0x03C3	0x9407    	SUBB A, #7
0x03C5	0x4006    	JC L_ToF_get_range16
;tof200.c,133 :: 		distance = 40000;
0x03C7	0x752440  	MOV ToF_get_range_distance_L0, #64
0x03CA	0x75259C  	MOV ToF_get_range_distance_L0+1, #156
;tof200.c,134 :: 		}
L_ToF_get_range16:
;tof200.c,135 :: 		}
0x03CD	0x8006    	SJMP L_ToF_get_range17
L_ToF_get_range15:
;tof200.c,139 :: 		distance = 40000;
0x03CF	0x752440  	MOV ToF_get_range_distance_L0, #64
0x03D2	0x75259C  	MOV ToF_get_range_distance_L0+1, #156
;tof200.c,140 :: 		}
L_ToF_get_range17:
;tof200.c,141 :: 		}
L_ToF_get_range14:
;tof200.c,142 :: 		}
L_ToF_get_range13:
;tof200.c,143 :: 		}
L_ToF_get_range12:
;tof200.c,145 :: 		return distance;
0x03D5	0xA824    	MOV R0, ToF_get_range_distance_L0
0x03D7	0xA925    	MOV R1, ToF_get_range_distance_L0+1
;tof200.c,146 :: 		}
0x03D9	0x22      	RET
; end of _ToF_get_range
_Double2Ints:
;__Lib_MathDouble.c,896 :: 		
;__Lib_MathDouble.c,898 :: 		
0x03DA	0xEA      	MOV A, R2
;__Lib_MathDouble.c,899 :: 		
0x03DB	0xD2E7    	SETB 231.B0
;__Lib_MathDouble.c,900 :: 		
0x03DD	0xCA      	XCH A, R2
;__Lib_MathDouble.c,901 :: 		
0x03DE	0x33      	RLC A
;__Lib_MathDouble.c,902 :: 		
0x03DF	0xEB      	MOV A, R3
;__Lib_MathDouble.c,903 :: 		
0x03E0	0x33      	RLC A
;__Lib_MathDouble.c,904 :: 		
0x03E1	0x92D5    	MOV F0_bit, C
;__Lib_MathDouble.c,905 :: 		
0x03E3	0x2481    	ADD A, 129
;__Lib_MathDouble.c,906 :: 		
0x03E5	0x4006    	JC __Double2Longword_l1
;__Lib_MathDouble.c,907 :: 		
0x03E7	0xE4      	CLR A
;__Lib_MathDouble.c,908 :: 		
__Double2Longword_l3:
;__Lib_MathDouble.c,909 :: 		
0x03E8	0xF8      	MOV R0, A
;__Lib_MathDouble.c,910 :: 		
0x03E9	0xF9      	MOV R1, A
;__Lib_MathDouble.c,911 :: 		
0x03EA	0xFA      	MOV R2, A
;__Lib_MathDouble.c,912 :: 		
0x03EB	0xFB      	MOV R3, A
;__Lib_MathDouble.c,913 :: 		
__Double2Longword_l5:
;__Lib_MathDouble.c,914 :: 		
0x03EC	0x22      	RET
;__Lib_MathDouble.c,916 :: 		
__Double2Longword_l1:
;__Lib_MathDouble.c,917 :: 		
0x03ED	0xFB      	MOV R3, A
;__Lib_MathDouble.c,918 :: 		
0x03EE	0xE4      	CLR A
;__Lib_MathDouble.c,919 :: 		
0x03EF	0xC8      	XCH A, R0
;__Lib_MathDouble.c,920 :: 		
0x03F0	0xC9      	XCH A, R1
;__Lib_MathDouble.c,921 :: 		
0x03F1	0xCA      	XCH A, R2
;__Lib_MathDouble.c,922 :: 		
0x03F2	0xCB      	XCH A, R3
;__Lib_MathDouble.c,923 :: 		
0x03F3	0x24E0    	ADD A, 224
;__Lib_MathDouble.c,924 :: 		
0x03F5	0x5011    	JNC __Double2Longword_l2
;__Lib_MathDouble.c,925 :: 		
0x03F7	0x74FF    	MOV A, 255
;__Lib_MathDouble.c,926 :: 		
0x03F9	0x80ED    	SJMP __Double2Longword_l3
;__Lib_MathDouble.c,928 :: 		
__Double2Longword_l4:
;__Lib_MathDouble.c,929 :: 		
0x03FB	0xC3      	CLR C
;__Lib_MathDouble.c,930 :: 		
0x03FC	0xCB      	XCH A, R3
;__Lib_MathDouble.c,931 :: 		
0x03FD	0x13      	RRC A
;__Lib_MathDouble.c,932 :: 		
0x03FE	0xCB      	XCH A, R3
;__Lib_MathDouble.c,933 :: 		
0x03FF	0xCA      	XCH A, R2
;__Lib_MathDouble.c,934 :: 		
0x0400	0x13      	RRC A
;__Lib_MathDouble.c,935 :: 		
0x0401	0xCA      	XCH A, R2
;__Lib_MathDouble.c,936 :: 		
0x0402	0xC9      	XCH A, R1
;__Lib_MathDouble.c,937 :: 		
0x0403	0x13      	RRC A
;__Lib_MathDouble.c,938 :: 		
0x0404	0xC9      	XCH A, R1
;__Lib_MathDouble.c,939 :: 		
0x0405	0xC8      	XCH A, R0
;__Lib_MathDouble.c,940 :: 		
0x0406	0x13      	RRC A
;__Lib_MathDouble.c,941 :: 		
0x0407	0xC8      	XCH A, R0
;__Lib_MathDouble.c,943 :: 		
__Double2Longword_l2:
;__Lib_MathDouble.c,944 :: 		
0x0408	0x04      	INC A
;__Lib_MathDouble.c,945 :: 		
0x0409	0x70F0    	JNZ __Double2Longword_l4
;__Lib_MathDouble.c,946 :: 		
0x040B	0x30D5DE  	JNB F0_bit, __Double2Longword_l5
;__Lib_MathDouble.c,947 :: 		
0x040E	0xC3      	CLR C
;__Lib_MathDouble.c,948 :: 		
0x040F	0xE4      	CLR A
;__Lib_MathDouble.c,949 :: 		
0x0410	0x98      	SUBB A, R0
;__Lib_MathDouble.c,950 :: 		
0x0411	0xF8      	MOV R0, A
;__Lib_MathDouble.c,951 :: 		
0x0412	0xE4      	CLR A
;__Lib_MathDouble.c,952 :: 		
0x0413	0x99      	SUBB A, R1
;__Lib_MathDouble.c,953 :: 		
0x0414	0xF9      	MOV R1, A
;__Lib_MathDouble.c,954 :: 		
0x0415	0xE4      	CLR A
;__Lib_MathDouble.c,955 :: 		
0x0416	0x9A      	SUBB A, R2
;__Lib_MathDouble.c,956 :: 		
0x0417	0xFA      	MOV R2, A
;__Lib_MathDouble.c,957 :: 		
0x0418	0xE4      	CLR A
;__Lib_MathDouble.c,958 :: 		
0x0419	0x9B      	SUBB A, R3
;__Lib_MathDouble.c,959 :: 		
0x041A	0xFB      	MOV R3, A
;__Lib_MathDouble.c,961 :: 		
0x041B	0x22      	RET
; end of _Double2Ints
_main:
0x041C	0x758180  	MOV SP, #128
0x041F	0x120544  	LCALL 1348
;serial_comm.c,109 :: 		void main(void)
;serial_comm.c,111 :: 		Init_Device();
0x0422	0x51B8    	ACALL _Init_Device
;serial_comm.c,113 :: 		while(1)
L_main27:
;serial_comm.c,115 :: 		d = ((float)ToF_get_range());
0x0424	0x7164    	ACALL _ToF_get_range
0x0426	0x715D    	ACALL _Word2Double
0x0428	0x71DA    	ACALL _Double2Ints
0x042A	0x850032  	MOV _d, 0
0x042D	0x850133  	MOV _d+1, 1
;serial_comm.c,116 :: 		delay_ms(400);
0x0430	0x7D19    	MOV R5, 25
0x0432	0x7EDC    	MOV R6, 220
0x0434	0x7F90    	MOV R7, 144
0x0436	0xDFFE    	DJNZ R7, PC-2
0x0438	0xDEFC    	DJNZ R6, PC-4
0x043A	0xDDFA    	DJNZ R5, PC-6
0x043C	0x00      	NOP
;serial_comm.c,117 :: 		};
0x043D	0x80E5    	SJMP L_main27
;serial_comm.c,118 :: 		}
0x043F	0x80FE    	SJMP #254
; end of _main
_UART0_ISR:
0x0441	0xC000    	PUSH R0
0x0443	0xC0D0    	PUSH PSW
0x0445	0xC0E0    	PUSH ACC
0x0447	0xC0F0    	PUSH B
0x0449	0xC082    	PUSH DPL
0x044B	0xC083    	PUSH DPH
;serial_comm.c,53 :: 		ics ICS_AUTO
;serial_comm.c,55 :: 		rx_buffer[cnt++] = UART_Read();
0x044D	0x7408    	MOV A, lo_addr(_rx_buffer)
0x044F	0x2518    	ADD A, _cnt
0x0451	0xF8      	MOV R0, A
0x0452	0x850041  	MOV FLOC__UART0_ISR+1, 0
0x0455	0x7156    	ACALL _UART_Read
0x0457	0x850040  	MOV FLOC__UART0_ISR, 0
0x045A	0xA841    	MOV R0, FLOC__UART0_ISR+1
0x045C	0xA640    	MOV @R0, FLOC__UART0_ISR
0x045E	0x0518    	INC _cnt
;serial_comm.c,56 :: 		RI0_bit = 0;
0x0460	0xC298    	CLR RI0_bit
;serial_comm.c,57 :: 		}
0x0462	0xD083    	POP DPH
0x0464	0xD082    	POP DPL
0x0466	0xD0F0    	POP B
0x0468	0xD0E0    	POP ACC
0x046A	0xD0D0    	POP PSW
0x046C	0xD000    	POP R0
0x046E	0x32      	RETI
; end of _UART0_ISR
_Timer_ISR:
0x046F	0xC000    	PUSH R0
0x0471	0xC001    	PUSH R1
0x0473	0xC002    	PUSH R2
0x0475	0xC005    	PUSH R5
0x0477	0xC007    	PUSH R7
0x0479	0xC0D0    	PUSH PSW
0x047B	0xC0E0    	PUSH ACC
0x047D	0xC0F0    	PUSH B
0x047F	0xC082    	PUSH DPL
0x0481	0xC083    	PUSH DPH
;serial_comm.c,63 :: 		ics ICS_AUTO
;serial_comm.c,65 :: 		switch(i)
0x0483	0x8054    	SJMP L_Timer_ISR18
;serial_comm.c,67 :: 		case 0:
L_Timer_ISR20:
;serial_comm.c,69 :: 		value = (d / 1000);
0x0485	0x7CE8    	MOV R4, #232
0x0487	0x7D03    	MOV R5, #3
0x0489	0xA832    	MOV R0, _d
0x048B	0xA933    	MOV R1, _d+1
0x048D	0x7101    	ACALL _Div_16x16_U
0x048F	0x850030  	MOV _value, 0
;serial_comm.c,70 :: 		break;
0x0492	0x81EF    	AJMP L_Timer_ISR19
;serial_comm.c,72 :: 		case 1:
L_Timer_ISR21:
;serial_comm.c,74 :: 		value = ((d % 1000) / 100);
0x0494	0x7CE8    	MOV R4, #232
0x0496	0x7D03    	MOV R5, #3
0x0498	0xA832    	MOV R0, _d
0x049A	0xA933    	MOV R1, _d+1
0x049C	0x7101    	ACALL _Div_16x16_U
0x049E	0xA804    	MOV R0, R4
0x04A0	0xA905    	MOV R1, R5
0x04A2	0x7C64    	MOV R4, #100
0x04A4	0x7D00    	MOV R5, #0
0x04A6	0x7101    	ACALL _Div_16x16_U
0x04A8	0x850030  	MOV _value, 0
;serial_comm.c,75 :: 		break;
0x04AB	0x8042    	SJMP L_Timer_ISR19
;serial_comm.c,77 :: 		case 2:
L_Timer_ISR22:
;serial_comm.c,79 :: 		value = ((d % 100) / 10);
0x04AD	0x7C64    	MOV R4, #100
0x04AF	0x7D00    	MOV R5, #0
0x04B1	0xA832    	MOV R0, _d
0x04B3	0xA933    	MOV R1, _d+1
0x04B5	0x7101    	ACALL _Div_16x16_U
0x04B7	0xA804    	MOV R0, R4
0x04B9	0xA905    	MOV R1, R5
0x04BB	0x7C0A    	MOV R4, #10
0x04BD	0x7D00    	MOV R5, #0
0x04BF	0x7101    	ACALL _Div_16x16_U
0x04C1	0x850030  	MOV _value, 0
;serial_comm.c,80 :: 		break;
0x04C4	0x8029    	SJMP L_Timer_ISR19
;serial_comm.c,82 :: 		case 3:
L_Timer_ISR23:
;serial_comm.c,84 :: 		value = (d % 10);
0x04C6	0x7C0A    	MOV R4, #10
0x04C8	0x7D00    	MOV R5, #0
0x04CA	0xA832    	MOV R0, _d
0x04CC	0xA933    	MOV R1, _d+1
0x04CE	0x7101    	ACALL _Div_16x16_U
0x04D0	0xA804    	MOV R0, R4
0x04D2	0xA905    	MOV R1, R5
0x04D4	0x850030  	MOV _value, 0
;serial_comm.c,85 :: 		break;
0x04D7	0x8016    	SJMP L_Timer_ISR19
;serial_comm.c,87 :: 		}
L_Timer_ISR18:
0x04D9	0xE531    	MOV A, _i
0x04DB	0x60A8    	JZ L_Timer_ISR20
0x04DD	0xE531    	MOV A, _i
0x04DF	0x6401    	XRL A, #1
0x04E1	0x60B1    	JZ L_Timer_ISR21
0x04E3	0xE531    	MOV A, _i
0x04E5	0x6402    	XRL A, #2
0x04E7	0x60C4    	JZ L_Timer_ISR22
0x04E9	0xE531    	MOV A, _i
0x04EB	0x6403    	XRL A, #3
0x04ED	0x60D7    	JZ L_Timer_ISR23
L_Timer_ISR19:
;serial_comm.c,89 :: 		if(d >= 40000)
0x04EF	0xC3      	CLR C
0x04F0	0xE532    	MOV A, _d
0x04F2	0x9440    	SUBB A, #64
0x04F4	0xE533    	MOV A, _d+1
0x04F6	0x949C    	SUBB A, #156
0x04F8	0x400A    	JC L_Timer_ISR24
;serial_comm.c,91 :: 		segment_write(11, i);
0x04FA	0x75420B  	MOV FARG_segment_write_disp, #11
0x04FD	0x853143  	MOV FARG_segment_write_pos, _i+0
0x0500	0x51CE    	ACALL _segment_write
;serial_comm.c,92 :: 		}
0x0502	0x8008    	SJMP L_Timer_ISR25
L_Timer_ISR24:
;serial_comm.c,95 :: 		segment_write(value, i);
0x0504	0x853042  	MOV FARG_segment_write_disp, _value+0
0x0507	0x853143  	MOV FARG_segment_write_pos, _i+0
0x050A	0x51CE    	ACALL _segment_write
;serial_comm.c,96 :: 		}
L_Timer_ISR25:
;serial_comm.c,98 :: 		i++;
0x050C	0x0531    	INC _i
;serial_comm.c,100 :: 		if(i > 3)
0x050E	0xD3      	SETB C
0x050F	0xE531    	MOV A, _i
0x0511	0x9403    	SUBB A, #3
0x0513	0x4003    	JC L_Timer_ISR26
;serial_comm.c,102 :: 		i = 0;
0x0515	0x753100  	MOV _i, #0
;serial_comm.c,103 :: 		}
L_Timer_ISR26:
;serial_comm.c,105 :: 		TMR3CN &= 0x7F;
0x0518	0x53917F  	ANL TMR3CN, #127
;serial_comm.c,106 :: 		}
0x051B	0xD083    	POP DPH
0x051D	0xD082    	POP DPL
0x051F	0xD0F0    	POP B
0x0521	0xD0E0    	POP ACC
0x0523	0xD0D0    	POP PSW
0x0525	0xD007    	POP R7
0x0527	0xD005    	POP R5
0x0529	0xD002    	POP R2
0x052B	0xD001    	POP R1
0x052D	0xD000    	POP R0
0x052F	0x32      	RETI
; end of _Timer_ISR
0x0544	0x7830    	MOV R0, 48
0x0546	0x7904    	MOV R1, 4
0x0548	0x75823C  	MOV DPL, 60
0x054B	0x758305  	MOV DPH, 5
0x054E	0x1202B0  	LCALL 688
0x0551	0x22      	RET
;serial_comm.c,14 :: _segment_code
0x0530	0xC0F9A4 ;_segment_code+0
0x0533	0xB09992 ;_segment_code+3
0x0536	0x82F880 ;_segment_code+6
0x0539	0x907FBF ;_segment_code+9
; end of _segment_code
;serial_comm.c,0 :: ?ICS_value
0x053C	0x00 ;?ICS_value+0
; end of ?ICS_value
;serial_comm.c,0 :: ?ICS_i
0x053D	0x00 ;?ICS_i+0
; end of ?ICS_i
;serial_comm.c,0 :: ?ICS_d
0x053E	0x0000 ;?ICS_d+0
; end of ?ICS_d
;serial_comm.c,31 :: _display_pos
0x0540	0xF7FBFD ;_display_pos+0
0x0543	0xFE ;_display_pos+3
; end of _display_pos
Symbol List:
//** Routines locations **
//ADDRESS    SIZE    PROCEDURE
//----------------------------------------------
0x0076      [13]    _UART1_Write
0x0083     [118]    _MODBUS_RTU_CRC16
0x00F9      [12]    _UART_Write
0x0105      [28]    _flush_RX_buffer
0x0121      [28]    _get_HB_LB
0x013D       [4]    _Oscillator_Init
0x0141      [57]    _level2Double
0x017A     [124]    _MODBUS_TX
0x01F6      [36]    _make_word
0x021A       [5]    _UART1_Read
0x021F       [6]    _UART1_Data_Ready
0x0225      [51]    _write_74HC595
0x0258      [43]    _UART1_Init
0x0283       [7]    _Interrupts_Init
0x028A       [7]    _PCA_Init
0x0291       [5]    ___DoIFC
0x0296      [10]    _Timer_Init
0x02A0      [16]    _Port_IO_Init
0x02B0       [8]    ___CC2D
0x02B8      [22]    _Init_Device
0x02CE      [51]    _segment_write
0x0301      [85]    _Div_16x16_U
0x0356       [7]    _UART_Read
0x035D       [7]    _Word2Double
0x0364     [118]    _ToF_get_range
0x03DA      [66]    _Double2Ints
0x041C      [37]    _main
0x0441      [46]    _UART0_ISR
0x046F     [193]    _Timer_ISR
//** Variables locations ** 
//ADDRESS    SIZE    VARIABLE
//----------------------------------------------
0x0000       [1]    R0
0x0001       [1]    R1
0x0002       [1]    R2
0x0003       [1]    R3
0x0004       [1]    R4
0x0005       [1]    R5
0x0006       [1]    R6
0x0007       [1]    R7
0x0008      [16]    _rx_buffer
0x0018       [1]    _cnt
0x0019       [3]    _UART_Rd_Ptr
0x001C       [3]    _UART_Rdy_Ptr
0x001F       [3]    _UART_Wr_Ptr
0x0022       [2]    ToF_get_range_CRC_1_L0
0x0024       [2]    ToF_get_range_distance_L0
0x0026       [1]    FARG_MODBUS_TX_slave_ID
0x0026       [1]    FARG_make_word_HB
0x0027       [1]    FARG_MODBUS_TX_function_code
0x0027       [1]    FARG_make_word_LB
0x0028       [1]    FARG_MODBUS_TX_reg
0x0028       [2]    make_word_tmp_L0
0x0029       [1]    FARG_MODBUS_TX_value
0x002A       [1]    MODBUS_TX_i_L0
0x002B       [1]    MODBUS_TX_lb_L0
0x002C       [1]    MODBUS_TX_hb_L0
0x002D       [1]    flush_RX_buffer_s_L0
0x002D       [1]    FARG_MODBUS_RTU_CRC16_data_input
0x002D       [1]    FARG_UART_Write__data
0x002E       [1]    FARG_MODBUS_RTU_CRC16_data_length
0x002F       [1]    FARG_UART1_Write_data_
0x0030       [1]    _value
0x0031       [1]    _i
0x0032       [2]    _d
0x0034       [8]    MODBUS_TX_tx_buffer_L0
0x003C       [2]    FARG_get_HB_LB_value
0x003C       [1]    MODBUS_RTU_CRC16_n_L0
0x003D       [1]    MODBUS_RTU_CRC16_s_L0
0x003E       [1]    FARG_get_HB_LB_HB
0x003E       [2]    MODBUS_RTU_CRC16_CRC_word_L0
0x003F       [1]    FARG_get_HB_LB_LB
0x0040       [2]    FLOC__UART0_ISR
0x0042       [1]    FARG_segment_write_disp
0x0043       [1]    FARG_segment_write_pos
0x0044       [1]    FARG_write_74HC595_send_data
0x0045       [1]    write_74HC595_clks_L0
0x0081       [1]    SP
0x0082       [1]    DPL
0x0083       [1]    DPH
0x0088       [1]    TCON
0x0089       [1]    TMOD
0x008D       [1]    TH1
0x008E       [1]    CKCON
0x0090       [0]    P1_6_bit
0x0090       [0]    P1_7_bit
0x0090       [0]    P1_5_bit
0x0091       [1]    TMR3CN
0x0092       [1]    TMR3RLL
0x0093       [1]    TMR3RLH
0x0098       [0]    RI0_bit
0x0098       [1]    SCON0
0x0099       [1]    SBUF0
0x00A4       [1]    P0MDOUT
0x00A5       [1]    P1MDOUT
0x00A8       [1]    IE
0x00B2       [1]    OSCICN
0x00D0       [0]    F0_bit
0x00D0       [0]    OV_bit
0x00D0       [1]    PSW
0x00D5       [1]    P1SKIP
0x00D9       [1]    PCA0MD
0x00E0       [1]    ACC
0x00E1       [1]    XBR0
0x00E2       [1]    XBR1
0x00E6       [1]    EIE1
0x00F0       [1]    B
//** Constants locations ** 
//ADDRESS    SIZE    CONSTANT
//----------------------------------------------
0x0530      [12]    _segment_code
0x053C       [1]    ?ICS_value
0x053D       [1]    ?ICS_i
0x053E       [2]    ?ICS_d
0x0540       [4]    _display_pos
//** Label List: ** 
//----------------------------------------------
  L_MODBUS_RTU_CRC160
  L_MODBUS_RTU_CRC161
  L_MODBUS_RTU_CRC162
  L_MODBUS_RTU_CRC163
  L_MODBUS_RTU_CRC164
  L_MODBUS_RTU_CRC165
  L_MODBUS_RTU_CRC166
  L_flush_RX_buffer7
  L_flush_RX_buffer8
  L_MODBUS_TX9
  L_MODBUS_TX10
  L_MODBUS_TX11
  L_ToF_get_range12
  L_ToF_get_range13
  L_ToF_get_range14
  L_ToF_get_range15
  L_ToF_get_range16
  L_ToF_get_range17
  L_Timer_ISR18
  L_Timer_ISR19
  L_Timer_ISR20
  L_Timer_ISR21
  L_Timer_ISR22
  L_Timer_ISR23
  L_Timer_ISR24
  L_Timer_ISR25
  L_Timer_ISR26
  L_main27
  L_main28
  L_write_74HC59529
  L_write_74HC59530
  L_write_74HC59531
  L_write_74HC59532
  _make_word
  _get_HB_LB
  _MODBUS_RTU_CRC16
  L__MODBUS_RTU_CRC1633
  L__MODBUS_RTU_CRC1634
  L__MODBUS_RTU_CRC1635
  L__MODBUS_RTU_CRC1636
  _flush_RX_buffer
  _MODBUS_TX
  _ToF_get_range
  L__ToF_get_range37
  _UART0_ISR
  _Timer_ISR
  _main
  _PCA_Init
  _Timer_Init
  _Port_IO_Init
  _Oscillator_Init
  _Interrupts_Init
  _Init_Device
  _write_74HC595
  L__write_74HC59538
  L__write_74HC59539
  _segment_write
  __Add_32x32_FP_start
  __Add_32x32_FP_ripi_dugo
  __Add_32x32_FP_res_beskonacno
  __Add_32x32_FP_mant0
  __Add_32x32_FP_mant_ne_0
  __Add_32x32_FP_l1
  __Add_32x32_FP_l2
  __Add_32x32_FP_l3
  __Add_32x32_FP_l5
  __Add_32x32_FP_l4
  __Add_32x32_FP_l6
  __Add_32x32_FP_l7
  __Add_32x32_FP_l8
  __Add_32x32_FP_l9
  __Add_32x32_FP_l10
  __Add_32x32_FP_l11
  __Add_32x32_FP_l12
  __Add_32x32_FP_l13
  __Add_32x32_FP_l14
  __Add_32x32_FP_l15
  __Add_32x32_FP_l18
  __Add_32x32_FP_l16
  __Add_32x32_FP_l17
  __Add_32x32_FP_l19
  __Add_32x32_FP_l20
  __Add_32x32_FP_l21
  __Add_32x32_FP_l22
  __Add_32x32_FP_l23
  __Add_32x32_FP_l24
  __Mul_32x32_FP_l1
  __Mul_32x32_FP_l2
  __Mul_32x32_FP_l3
  __Mul_32x32_FP_ret
  __Mul_32x32_FP_l4
  __Mul_32x32_FP_l5
  __Mul_32x32_FP_l6
  __Mul_32x32_FP_l7
  __Mul_32x32_FP_l8
  __Mul_32x32_FP_l9
  __Mul_32x32_FP_l10
  __Mul_32x32_FP_l11
  __Mul_32x32_FP_l12
  __Mul_32x32_FP_l16
  __Mul_32x32_FP_l13
  __Mul_32x32_FP_l14
  __Mul_32x32_FP_l15
  __Mul_32x32_FP_l20
  __Mul_32x32_FP_l17
  __Mul_32x32_FP_l19
  __Mul_32x32_FP_l18
  __Mul_32x32_FP_l21
  __Mul_32x32_FP_l22
  __Mul_32x32_FP_l23
  __Mul_32x32_FP_l24
  __Mul_32x32_FP_l25
  __Mul_32x32_FP_l26
  __Div_32x32_FP_teska_prevara
  __Div_32x32_FP_l6
  __Div_32x32_FP_l7
  __Div_32x32_FP_l1
  __Div_32x32_FP_l2
  __Div_32x32_FP_l3
  __Div_32x32_FP_l4
  __Div_32x32_FP_l5
  __Div_32x32_FP_l8
  __Div_32x32_FP_l9
  __Div_32x32_FP_l10
  __Div_32x32_FP_l11
  __Div_32x32_FP_l12
  __Div_32x32_FP_l13
  __Div_32x32_FP_l20
  __Div_32x32_FP_l14
  __Div_32x32_FP_l19
  __Div_32x32_FP_l15
  __Div_32x32_FP_l16
  __Div_32x32_FP_l17
  __Div_32x32_FP_l18
  __Div_32x32_FP_l21
  __Div_32x32_FP_l22
  __Div_32x32_FP_l23
  __Double2Longword_l1
  __Double2Longword_l3
  __Double2Longword_l5
  __Double2Longword_l2
  __Double2Longword_l4
  __Byte2Double_long
  __Byte2Double_l1
  __Byte2Double_l2
  __Byte2Double_l3
  lab_cd_nnn090A
  lab_cd_090A
  lab_cd_08F4
  lab_cd_0924
  lab_cd_0923
  _Add_32x32_FP
  _Sub_32x32_FP
  _Mul_32x32_FP
  _Div_32x32_FP
  _Double2Ints
  _level2Double
  _Byte2Double
  _Int2Double
  _Word2Double
  _Long2Double
  _LongWord2Double
  _Compare_Double
  _CC2D_Loop1
  _CC2PD_Loop1
  _CC2XD_Loop1
  ___DoIFC
  ___CC2D
  ___CC2PD
  ___CC2XD
  L_UART1_Write0
  L_UART1_Write1
  L_UART1_Write_Text2
  L_UART1_Write_Text3
  L_UART1_Read_Text4
  L_UART1_Read_Text5
  L_UART1_Read_Text6
  L_UART1_Read_Text7
  L_UART1_Read_Text8
  L_UART1_Read_Text9
  L_UART1_Read_Text10
  L_UART1_Read_Text11
  L_UART1_Read_Text12
  L_UART_Write_Text13
  L_UART_Write_Text14
  L_UART_Read_Text15
  L_UART_Read_Text16
  L_UART_Read_Text17
  L_UART_Read_Text18
  L_UART_Read_Text19
  L_UART_Read_Text20
  L_UART_Read_Text21
  L_UART_Read_Text22
  L_UART_Read_Text23
  _UART1_Init
  _UART1_Write
  _UART1_Data_Ready
  _UART1_Read
  _UART1_Write_Text
  _UART1_Read_Text
  _UART_Set_Active
  _UART_Write
  _UART_Write_Text
  _UART_Read
  _UART_Data_Ready
  _UART_Read_Text
  L_MODBUS_RTU_CRC160
  L_MODBUS_RTU_CRC161
  L_MODBUS_RTU_CRC162
  L_MODBUS_RTU_CRC163
  L_MODBUS_RTU_CRC164
  L_MODBUS_RTU_CRC165
  L_MODBUS_RTU_CRC166
  L_flush_RX_buffer7
  L_flush_RX_buffer8
  L_MODBUS_TX9
  L_MODBUS_TX10
  L_MODBUS_TX11
  L_ToF_get_range12
  L_ToF_get_range13
  L_ToF_get_range14
  L_ToF_get_range15
  L_ToF_get_range16
  L_ToF_get_range17
  L_Timer_ISR18
  L_Timer_ISR19
  L_Timer_ISR20
  L_Timer_ISR21
  L_Timer_ISR22
  L_Timer_ISR23
  L_Timer_ISR24
  L_Timer_ISR25
  L_Timer_ISR26
  L_main27
  L_main28
  L_write_74HC59529
  L_write_74HC59530
  L_write_74HC59531
  L_write_74HC59532
  _make_word
  _get_HB_LB
  _MODBUS_RTU_CRC16
  L__MODBUS_RTU_CRC1633
  L__MODBUS_RTU_CRC1634
  L__MODBUS_RTU_CRC1635
  L__MODBUS_RTU_CRC1636
  _flush_RX_buffer
  _MODBUS_TX
  _ToF_get_range
  L__ToF_get_range37
  _UART0_ISR
  _Timer_ISR
  _main
  _PCA_Init
  _Timer_Init
  _Port_IO_Init
  _Oscillator_Init
  _Interrupts_Init
  _Init_Device
  _write_74HC595
  L__write_74HC59538
  L__write_74HC59539
  _segment_write
  L_UART1_Write0
  L_UART1_Write1
  L_UART1_Write_Text2
  L_UART1_Write_Text3
  L_UART1_Read_Text4
  L_UART1_Read_Text5
  L_UART1_Read_Text6
  L_UART1_Read_Text7
  L_UART1_Read_Text8
  L_UART1_Read_Text9
  L_UART1_Read_Text10
  L_UART1_Read_Text11
  L_UART1_Read_Text12
  L_UART_Write_Text13
  L_UART_Write_Text14
  L_UART_Read_Text15
  L_UART_Read_Text16
  L_UART_Read_Text17
  L_UART_Read_Text18
  L_UART_Read_Text19
  L_UART_Read_Text20
  L_UART_Read_Text21
  L_UART_Read_Text22
  L_UART_Read_Text23
  _UART1_Init
  _UART1_Write
  _UART1_Data_Ready
  _UART1_Read
  _UART1_Write_Text
  _UART1_Read_Text
  _UART_Set_Active
  _UART_Write
  _UART_Write_Text
  _UART_Read
  _UART_Data_Ready
  _UART_Read_Text
  L_MODBUS_RTU_CRC160
  L_MODBUS_RTU_CRC161
  L_MODBUS_RTU_CRC162
  L_MODBUS_RTU_CRC163
  L_MODBUS_RTU_CRC164
  L_MODBUS_RTU_CRC165
  L_MODBUS_RTU_CRC166
  L_flush_RX_buffer7
  L_flush_RX_buffer8
  L_MODBUS_TX9
  L_MODBUS_TX10
  L_MODBUS_TX11
  L_ToF_get_range12
  L_ToF_get_range13
  L_ToF_get_range14
  L_ToF_get_range15
  L_ToF_get_range16
  L_ToF_get_range17
  L_Timer_ISR18
  L_Timer_ISR19
  L_Timer_ISR20
  L_Timer_ISR21
  L_Timer_ISR22
  L_Timer_ISR23
  L_Timer_ISR24
  L_Timer_ISR25
  L_Timer_ISR26
  L_main27
  L_main28
  L_write_74HC59529
  L_write_74HC59530
  L_write_74HC59531
  L_write_74HC59532
  _make_word
  _get_HB_LB
  _MODBUS_RTU_CRC16
  L__MODBUS_RTU_CRC1633
  L__MODBUS_RTU_CRC1634
  L__MODBUS_RTU_CRC1635
  L__MODBUS_RTU_CRC1636
  _flush_RX_buffer
  _MODBUS_TX
  _ToF_get_range
  L__ToF_get_range37
  _UART0_ISR
  _Timer_ISR
  _main
  _PCA_Init
  _Timer_Init
  _Port_IO_Init
  _Oscillator_Init
  _Interrupts_Init
  _Init_Device
  _write_74HC595
  L__write_74HC59538
  L__write_74HC59539
  _segment_write
  lab_end
  loop_lab
  lab_end1
  lab_loop1
  lab_end2
  lab_loop3
  __Div_8x8_S_Bpositive
  __Div_8x8_S_Apositive
  __Div_8x8_S_Skip_Div
  __Div_8x8_S_div_ret
  __op2hi_not_zero
  __op1hi_not_zero
  __Div_16x16_U_Loop1
  __Div_16x16_U_Lab1
  __Div_16x16_U_div_ret
  __Div_16x16_U_Loop2
  __Div_16x16_U_Lab2
  __Div_16x16_U_Lab3
  __Div_16x16_S_op2hipositive
  __Div_16x16_S_op1hipositive
  __Div_16x16_S_Skip_Udiv
  __Div_16x16_S_div_ret
  __Div_32x32_U_start
  __Div_32x32_U_aux
  __Div_32x32_U_l2
  __Div_32x32_U_l1
  lw_1
  lw_2
  __Div_32x32_U_l3
  lw_3
  __Div_32x32_U_l4
  __Div_32x32_U_IR_l0
  __Div_32x32_U_l5
  __Div_32x32_U_l6
  __Div_32x32_U_l8
  __Div_32x32_U_l7
  __Div_32x32_U_IR_l1
  __Div_32x32_U_l10
  __Div_32x32_U_l9
  __Div_32x32_U_IR_l2
  __Div_32x32_S_l1
  __Div_32x32_S_call_uns
  __Div_32x32_S_l2
  __Div_32x32_S_l3
  __Div_32x32_S_div_ret
  __shl_long
  __shr_longint
  __shr_longword
  _Mul_16x16
  _Mul_32x32
  _Div_8x8_S
  _Div_16x16_U
  _Div_16x16_S
  _Div_32x32_U
  _Div_32x32_S
